<?xml version="1.0" encoding="UTF-8"?>
<svg width="100px" height="100px" viewBox="0 0 100 100" version="1.1" xmlns="http://www.w3.org/2000/svg" xmlns:xlink="http://www.w3.org/1999/xlink">
    <!-- Generator: Sketch 52.3 (67297) - http://www.bohemiancoding.com/sketch -->
    <title>card-sort-icon</title>
    <desc>Created with Sketch.</desc>
    <g id="Page-1" stroke="none" stroke-width="1" fill="none" fill-rule="evenodd">
        <g id="GitLab-First-Look" transform="translate(-735.000000, -1879.000000)">
            <g id="card-sort-icon" transform="translate(736.000000, 1880.000000)">
                <path d="M25,5.9997 L3,5.9997 C1.343,5.9997 0,4.6567 0,2.9997 C0,1.3437 1.343,-0.0003 3,-0.0003 L25,-0.0003 C26.657,-0.0003 28,1.3437 28,2.9997 C28,4.6567 26.657,5.9997 25,5.9997" id="Fill-1" fill="#FCA326"></path>
                <path d="M25,5.9997 L3,5.9997 C1.343,5.9997 0,4.6567 0,2.9997 C0,1.3437 1.343,-0.0003 3,-0.0003 L25,-0.0003 C26.657,-0.0003 28,1.3437 28,2.9997 C28,4.6567 26.657,5.9997 25,5.9997 Z" id="Stroke-3" stroke="#333333" stroke-width="2" stroke-linecap="round" stroke-linejoin="round"></path>
                <path d="M60,5.9997 L38,5.9997 C36.343,5.9997 35,4.6567 35,2.9997 C35,1.3437 36.343,-0.0003 38,-0.0003 L60,-0.0003 C61.657,-0.0003 63,1.3437 63,2.9997 C63,4.6567 61.657,5.9997 60,5.9997" id="Fill-5" fill="#FC6D26"></path>
                <path d="M60,5.9997 L38,5.9997 C36.343,5.9997 35,4.6567 35,2.9997 C35,1.3437 36.343,-0.0003 38,-0.0003 L60,-0.0003 C61.657,-0.0003 63,1.3437 63,2.9997 C63,4.6567 61.657,5.9997 60,5.9997 Z" id="Stroke-7" stroke="#333333" stroke-width="2" stroke-linecap="round" stroke-linejoin="round"></path>
                <path d="M95,5.9997 L73,5.9997 C71.343,5.9997 70,4.6567 70,2.9997 C70,1.3437 71.343,-0.0003 73,-0.0003 L95,-0.0003 C96.657,-0.0003 98,1.3437 98,2.9997 C98,4.6567 96.657,5.9997 95,5.9997" id="Fill-9" fill="#E24329"></path>
                <path d="M95,5.9997 L73,5.9997 C71.343,5.9997 70,4.6567 70,2.9997 C70,1.3437 71.343,-0.0003 73,-0.0003 L95,-0.0003 C96.657,-0.0003 98,1.3437 98,2.9997 C98,4.6567 96.657,5.9997 95,5.9997 Z" id="Stroke-11" stroke="#333333" stroke-width="2" stroke-linecap="round" stroke-linejoin="round"></path>
                <path d="M22,37.6667 L6,37.6667 C3.791,37.6667 2,35.8757 2,33.6667 L2,17.6667 C2,15.4577 3.791,13.6667 6,13.6667 L22,13.6667 C24.209,13.6667 26,15.4577 26,17.6667 L26,33.6667 C26,35.8757 24.209,37.6667 22,37.6667" id="Fill-13" fill="#CCCCCC"></path>
                <path d="M22,37.6667 L6,37.6667 C3.791,37.6667 2,35.8757 2,33.6667 L2,17.6667 C2,15.4577 3.791,13.6667 6,13.6667 L22,13.6667 C24.209,13.6667 26,15.4577 26,17.6667 L26,33.6667 C26,35.8757 24.209,37.6667 22,37.6667 Z" id="Stroke-15" stroke="#333333" stroke-width="2" stroke-linecap="round" stroke-linejoin="round"></path>
                <path d="M57,37.6667 L41,37.6667 C38.791,37.6667 37,35.8757 37,33.6667 L37,17.6667 C37,15.4577 38.791,13.6667 41,13.6667 L57,13.6667 C59.209,13.6667 61,15.4577 61,17.6667 L61,33.6667 C61,35.8757 59.209,37.6667 57,37.6667" id="Fill-17" fill="#9795F9"></path>
                <path d="M57,37.6667 L41,37.6667 C38.791,37.6667 37,35.8757 37,33.6667 L37,17.6667 C37,15.4577 38.791,13.6667 41,13.6667 L57,13.6667 C59.209,13.6667 61,15.4577 61,17.6667 L61,33.6667 C61,35.8757 59.209,37.6667 57,37.6667 Z" id="Stroke-19" stroke="#333333" stroke-width="2" stroke-linecap="round" stroke-linejoin="round"></path>
                <path d="M92,37.6667 L76,37.6667 C73.791,37.6667 72,35.8757 72,33.6667 L72,17.6667 C72,15.4577 73.791,13.6667 76,13.6667 L92,13.6667 C94.209,13.6667 96,15.4577 96,17.6667 L96,33.6667 C96,35.8757 94.209,37.6667 92,37.6667" id="Fill-21" fill="#FCF2EB"></path>
                <path d="M92,37.6667 L76,37.6667 C73.791,37.6667 72,35.8757 72,33.6667 L72,17.6667 C72,15.4577 73.791,13.6667 76,13.6667 L92,13.6667 C94.209,13.6667 96,15.4577 96,17.6667 L96,33.6667 C96,35.8757 94.209,37.6667 92,37.6667 Z" id="Stroke-23" stroke="#333333" stroke-width="2" stroke-linecap="round" stroke-linejoin="round"></path>
                <path d="M22,67.6667 L6,67.6667 C3.791,67.6667 2,65.8757 2,63.6667 L2,47.6667 C2,45.4577 3.791,43.6667 6,43.6667 L22,43.6667 C24.209,43.6667 26,45.4577 26,47.6667 L26,63.6667 C26,65.8757 24.209,67.6667 22,67.6667" id="Fill-25" fill="#FFFFFF"></path>
                <path d="M22,67.6667 L6,67.6667 C3.791,67.6667 2,65.8757 2,63.6667 L2,47.6667 C2,45.4577 3.791,43.6667 6,43.6667 L22,43.6667 C24.209,43.6667 26,45.4577 26,47.6667 L26,63.6667 C26,65.8757 24.209,67.6667 22,67.6667 Z" id="Stroke-27" stroke="#333333" stroke-width="2" stroke-linecap="round" stroke-linejoin="round"></path>
                <path d="M57,67.6667 L41,67.6667 C38.791,67.6667 37,65.8757 37,63.6667 L37,47.6667 C37,45.4577 38.791,43.6667 41,43.6667 L57,43.6667 C59.209,43.6667 61,45.4577 61,47.6667 L61,63.6667 C61,65.8757 59.209,67.6667 57,67.6667" id="Fill-29" fill="#FCF2EB"></path>
                <path d="M57,67.6667 L41,67.6667 C38.791,67.6667 37,65.8757 37,63.6667 L37,47.6667 C37,45.4577 38.791,43.6667 41,43.6667 L57,43.6667 C59.209,43.6667 61,45.4577 61,47.6667 L61,63.6667 C61,65.8757 59.209,67.6667 57,67.6667 Z" id="Stroke-31" stroke="#333333" stroke-width="2" stroke-linecap="round" stroke-linejoin="round"></path>
                <path d="M92,67.6667 L76,67.6667 C73.791,67.6667 72,65.8757 72,63.6667 L72,47.6667 C72,45.4577 73.791,43.6667 76,43.6667 L92,43.6667 C94.209,43.6667 96,45.4577 96,47.6667 L96,63.6667 C96,65.8757 94.209,67.6667 92,67.6667" id="Fill-33" fill="#9795F9"></path>
                <path d="M92,67.6667 L76,67.6667 C73.791,67.6667 72,65.8757 72,63.6667 L72,47.6667 C72,45.4577 73.791,43.6667 76,43.6667 L92,43.6667 C94.209,43.6667 96,45.4577 96,47.6667 L96,63.6667 C96,65.8757 94.209,67.6667 92,67.6667 Z" id="Stroke-35" stroke="#333333" stroke-width="2" stroke-linecap="round" stroke-linejoin="round"></path>
                <path d="M22,97.6667 L6,97.6667 C3.791,97.6667 2,95.8757 2,93.6667 L2,77.6667 C2,75.4577 3.791,73.6667 6,73.6667 L22,73.6667 C24.209,73.6667 26,75.4577 26,77.6667 L26,93.6667 C26,95.8757 24.209,97.6667 22,97.6667" id="Fill-37" fill="#CCCCCC"></path>
                <path d="M22,97.6667 L6,97.6667 C3.791,97.6667 2,95.8757 2,93.6667 L2,77.6667 C2,75.4577 3.791,73.6667 6,73.6667 L22,73.6667 C24.209,73.6667 26,75.4577 26,77.6667 L26,93.6667 C26,95.8757 24.209,97.6667 22,97.6667 Z" id="Stroke-39" stroke="#333333" stroke-width="2" stroke-linecap="round" stroke-linejoin="round"></path>
                <path d="M92,97.6667 L76,97.6667 C73.791,97.6667 72,95.8757 72,93.6667 L72,77.6667 C72,75.4577 73.791,73.6667 76,73.6667 L92,73.6667 C94.209,73.6667 96,75.4577 96,77.6667 L96,93.6667 C96,95.8757 94.209,97.6667 92,97.6667" id="Fill-41" fill="#FFFFFF"></path>
                <path d="M92,97.6667 L76,97.6667 C73.791,97.6667 72,95.8757 72,93.6667 L72,77.6667 C72,75.4577 73.791,73.6667 76,73.6667 L92,73.6667 C94.209,73.6667 96,75.4577 96,77.6667 L96,93.6667 C96,95.8757 94.209,97.6667 92,97.6667 Z" id="Stroke-43" stroke="#333333" stroke-width="2" stroke-linecap="round" stroke-linejoin="round"></path>
            </g>
        </g>
    </g>
</svg>